trunk/testbench/gost89_mac_tb.vcd
$date
	Sun Mar 03 15:49:34 2024
$end
$version
	Icarus Verilog
$end
$timescale
	1ps
$end
$scope module gost89_mac_tb $end
$var wire 32 ! result [31:0] $end
$var wire 32 " out [31:0] $end
$var wire 1 # busy $end
$var reg 1 $ clk $end
$var reg 64 % in [63:0] $end
$var reg 256 & key [255:0] $end
$var reg 1 ' load_data $end
$var reg 1 ( reset $end
$var reg 512 ) sbox [511:0] $end
$scope module mac1 $end
$var wire 1 $ clk $end
$var wire 64 * in [63:0] $end
$var wire 256 + key [255:0] $end
$var wire 1 ' load_data $end
$var wire 1 ( reset $end
$var wire 512 , sbox [511:0] $end
$var wire 32 - out2 [31:0] $end
$var wire 32 . out1 [31:0] $end
$var reg 1 # busy $end
$var reg 5 / counter [4:0] $end
$var reg 32 0 n1 [31:0] $end
$var reg 32 1 n2 [31:0] $end
$var reg 1 2 need_xor $end
$var reg 32 3 out [31:0] $end
$var reg 32 4 round_key [31:0] $end
$scope module rnd $end
$var wire 1 $ clk $end
$var wire 32 5 key [31:0] $end
$var wire 32 6 n1 [31:0] $end
$var wire 32 7 n2 [31:0] $end
$var wire 32 8 out2 [31:0] $end
$var wire 512 9 sbox [511:0] $end
$var wire 32 : tmp2 [31:0] $end
$var wire 32 ; tmp1 [31:0] $end
$var wire 32 < out1 [31:0] $end
$scope module sbox1 $end
$var wire 4 = in [3:0] $end
$var wire 64 > sbox [63:0] $end
$var reg 4 ? out [3:0] $end
$upscope $end
$scope module sbox2 $end
$var wire 4 @ in [3:0] $end
$var wire 64 A sbox [63:0] $end
$var reg 4 B out [3:0] $end
$upscope $end
$scope module sbox3 $end
$var wire 4 C in [3:0] $end
$var wire 64 D sbox [63:0] $end
$var reg 4 E out [3:0] $end
$upscope $end
$scope module sbox4 $end
$var wire 4 F in [3:0] $end
$var wire 64 G sbox [63:0] $end
$var reg 4 H out [3:0] $end
$upscope $end
$scope module sbox5 $end
$var wire 4 I in [3:0] $end
$var wire 64 J sbox [63:0] $end
$var reg 4 K out [3:0] $end
$upscope $end
$scope module sbox6 $end
$var wire 4 L in [3:0] $end
$var wire 64 M sbox [63:0] $end
$var reg 4 N out [3:0] $end
$upscope $end
$scope module sbox7 $end
$var wire 4 O in [3:0] $end
$var wire 64 P sbox [63:0] $end
$var reg 4 Q out [3:0] $end
$upscope $end
$scope module sbox8 $end
$var wire 4 R in [3:0] $end
$var wire 64 S sbox [63:0] $end
$var reg 4 T out [3:0] $end
$upscope $end
$upscope $end
$upscope $end
$upscope $end
$enddefinitions $end
$comment Show the parameter values. $end
$dumpall
$end
#0
$dumpvars
bx T
b1111111010000010101111010010010010010001111100110101110001100 S
bx R
bx Q
b1101101101000001001111110101100100001010111001110110100000101100 P
bx O
bx N
b100101110100000011100100001110100110110100001011001110011111110 M
bx L
bx K
b110110001110001010111111101100001001010100111100000001110110010 J
bx I
bx H
b111110110100001000010001001111111100100011011001011001001010011 G
bx F
bx E
b101100000011101101000110100001011101111110001110110000010011011 D
bx C
bx B
b1110101101001100011011011111101000100011100000010000011101011001 A
bx @
bx ?
b100101010010010110110000000111001101011000111000111111101010011 >
bx =
bx <
bx ;
bx :
b1001010100100101101100000001110011010110001110001111111010100111110101101001100011011011111101000100011100000010000011101011001010110000001110110100011010000101110111111000111011000001001101101111101101000010000100010011111111001000110110010110010010100110110110001110001010111111101100001001010100111100000001110110010010010111010000001110010000111010011011010000101100111001111111011011011010000010011111101011001000010101110011101101000001011000001111111010000010101111010010010010010001111100110101110001100 9
bx 8
bx 7
bx 6
bx 5
bx 4
bx 3
x2
bx 1
bx 0
bx /
bx .
bx -
b1001010100100101101100000001110011010110001110001111111010100111110101101001100011011011111101000100011100000010000011101011001010110000001110110100011010000101110111111000111011000001001101101111101101000010000100010011111111001000110110010110010010100110110110001110001010111111101100001001010100111100000001110110010010010111010000001110010000111010011011010000101100111001111111011011011010000010011111101011001000010101110011101101000001011000001111111010000010101111010010010010010001111100110101110001100 ,
b10001110101111101101110000001010000001110001111101111111010110100101100011111000011100100001110110110110011110010100011110100010101010001110001001001000010100100011010111000011110100010100010111101111001110011011001111011010010101111001110111110111101 +
bx *
b1001010100100101101100000001110011010110001110001111111010100111110101101001100011011011111101000100011100000010000011101011001010110000001110110100011010000101110111111000111011000001001101101111101101000010000100010011111111001000110110010110010010100110110110001110001010111111101100001001010100111100000001110110010010010111010000001110010000111010011011010000101100111001111111011011011010000010011111101011001000010101110011101101000001011000001111111010000010101111010010010010010001111100110101110001100 )
0(
0'
b10001110101111101101110000001010000001110001111101111111010110100101100011111000011100100001110110110110011110010100011110100010101010001110001001001000010100100011010111000011110100010100010111101111001110011011001111011010010101111001110111110111101 &
bx %
0$
x#
bx "
bx !
$end
#1000
0#
02
b10001 /
1(
1$
#2000
0$
#3000
1$
0(
#4000
0$
#5000
1#
b0 /
12
b11110000110100101101111110100010 1
b11110000110100101101111110100010 7
b1001011011001010111111000101110 -
b1001011011001010111111000101110 8
b1001011011001010111111000101110 0
b1001011011001010111111000101110 6
1$
1'
b100101101100101011111100010111011110000110100101101111110100010 %
b100101101100101011111100010111011110000110100101101111110100010 *
#6000
0$
#7000
b10000111010011011111010101000100 .
b10000111010011011111010101000100 <
b101 ?
b1110 B
b11 E
b1111 H
b1110 K
b1100 N
b1100 Q
b1011100110011101111001111100101 :
b101 T
b1110 =
b0 @
b101 C
b111 F
b1011 I
b1101 L
b1111 O
b100 R
b1001111110110110111010100001110 ;
b100011101011111011011100000 4
b100011101011111011011100000 5
b1 /
1$
0'
#8000
0$
#9000
b10100010101000110101001111100111 .
b10100010101000110101001111100111 <
b11 H
b1100 B
b1000 E
b1101 K
b11 N
b1001 Q
b10111001001111010011100011000101 :
b1011 T
b1111 F
b11 @
b1 C
b110 I
b1000 L
b111 O
b1101 R
b1001011011001010111111000101110 1
b1001011011001010111111000101110 7
b10000111010011011111010101000100 -
b10000111010011011111010101000100 8
b10000111010011011111010101000100 0
b10000111010011011111010101000100 6
b10 /
b11010111100001101111000100111110 ;
b1010000001110001111101111111010 4
b1010000001110001111101111111010 5
1$
#10000
0$
#11000
b1110001110110001000011100111100 .
b1110001110110001000011100111100 <
b1110 ?
b1010 B
b10 E
b1101 H
b1110 K
b1 N
b1111 Q
b1001111000111101101001010101110 :
b100 T
b111 =
b111 @
b111 C
b1 F
b1011 I
b110 L
b101 O
b111 R
b11010010110001111100001110010000 4
b11010010110001111100001110010000 5
b10000111010011011111010101000100 1
b10000111010011011111010101000100 7
b10100010101000110101001111100111 -
b10100010101000110101001111100111 8
b1110101011010110001011101110111 ;
b10100010101000110101001111100111 0
b10100010101000110101001111100111 6
b11 /
1$
#12000
0$
#13000
b100110111001100000100000000110 .
b100110111001100000100000000110 <
b1000 H
b1011 ?
b1000 E
b0 K
b11 N
b1100 Q
b1111100001100001000100010101011 :
b111 T
b101 F
b1001 =
b1 C
b1100 I
b1000 L
b1111 O
b101 R
b10100010101000110101001111100111 1
b10100010101000110101001111100111 7
b1110001110110001000011100111100 -
b1110001110110001000011100111100 8
b1110001110110001000011100111100 0
b1110001110110001000011100111100 6
b100 /
b1011111100011000101000101111001 ;
b11101101101100111100101000111101 4
b11101101101100111100101000111101 5
1$
#14000
0$
#15000
b1101111001110111011011100001001 .
b1101111001110111011011100001001 <
b110 ?
b110 B
b1100 E
b1101 H
b11 K
b1010 N
b110 Q
b110101000111101110001100110 :
b0 T
b1000 =
b100 @
b1010 C
b1 F
b1101 I
b10 L
b1100 O
b11 R
b10101010001110001001001000010 4
b10101010001110001001001000010 5
b1110001110110001000011100111100 1
b1110001110110001000011100111100 7
b100110111001100000100000000110 -
b100110111001100000100000000110 8
b111100001011010001101001001000 ;
b100110111001100000100000000110 0
b100110111001100000100000000110 6
b101 /
1$
#16000
0$
#17000
b11110111111111111001100011101001 .
b11110111111111111001100011101001 <
b10 ?
b11 B
b11 E
b10 H
b1010 K
b1111 N
b1101 Q
b11101111110100010001100110010 :
b1 T
b11 =
b1001 @
b101 C
b1101 F
b1001 I
b1110 L
b0 O
b0 R
b100110111001100000100000000110 1
b100110111001100000100000000110 7
b1101111001110111011011100001001 -
b1101111001110111011011100001001 8
b1101111001110111011011100001001 0
b1101111001110111011011100001001 6
b110 /
b111010011101010110010011 ;
b10010001101011100001111010001010 4
b10010001101011100001111010001010 5
1$
#18000
0$
#19000
b1110 ?
b10111011100110101100000111000111 .
b10111011100110101100000111000111 <
b10 B
b100 E
b1001 H
b1101 N
b1001 Q
b11011001110110101001010000101110 :
b1101 T
b111 =
b1000 @
b110 C
b110 F
b111 L
b111 O
b10 R
b101111011110011100110110011110 4
b101111011110011100110110011110 5
b1101111001110111011011100001001 1
b1101111001110111011011100001001 7
b11110111111111111001100011101001 -
b11110111111111111001100011101001 8
b100111011110010110011010000111 ;
b11110111111111111001100011101001 0
b11110111111111111001100011101001 6
b111 /
1$
#20000
0$
#21000
b10110001101111101111010001111000 .
b10110001101111101111010001111000 <
b1101 ?
b1000 E
b1100 H
b1000 K
b10 N
b10 Q
b10010010001010001100100000101101 :
b1001 T
b100 =
b1 C
b1011 F
b111 I
b101 L
b1110 O
b1000 R
b11110111111111111001100011101001 1
b11110111111111111001100011101001 7
b10111011100110101100000111000111 -
b10111011100110101100000111000111 8
b10111011100110101100000111000111 0
b10111011100110101100000111000111 6
b1000 /
b10001110010101111011000110000100 ;
b11010010101111001110111110111101 4
b11010010101111001110111110111101 5
1$
#22000
0$
#23000
b1110 T
b10010001001001000111011011101111 .
b10010001001001000111011011101111 <
b110 ?
b1101 B
b111 E
b101 H
b101 K
b0 N
b11100101000001010101011111010110 :
b101 Q
b1011 R
b1000 =
b101 @
b1011 C
b1110 F
b100 I
b11 L
b110 O
b100011101011111011011100000 4
b100011101011111011011100000 5
b10111011100110101100000111000111 1
b10111011100110101100000111000111 7
b10110001101111101111010001111000 -
b10110001101111101111010001111000 8
b10110110001101001110101101011000 ;
b10110001101111101111010001111000 0
b10110001101111101111010001111000 6
b1001 /
1$
#24000
0$
#25000
b10101110001101000010100000100001 .
b10101110001101000010100000100001 <
b1011 ?
b101 B
b1 E
b1111 H
b11 K
b10 N
b1011 Q
b10001011001000111111000101011011 :
b1000 T
b1001 =
b1110 @
b10 C
b111 F
b1101 I
b101 L
b1 O
b1110 R
b10110001101111101111010001111000 1
b10110001101111101111010001111000 7
b10010001001001000111011011101111 -
b10010001001001000111011011101111 8
b10010001001001000111011011101111 0
b10010001001001000111011011101111 6
b1010 /
b11100001010111010111001011101001 ;
b1010000001110001111101111111010 4
b1010000001110001111101111111010 5
1$
#26000
0$
#27000
b1110 K
b11100011100111001010001000000000 .
b11100011100111001010001000000000 <
b1010 ?
b1 B
b111 E
b101 H
b1110 N
b1101 Q
b10011101111011100101011100011010 :
b1001 T
b1011 I
b1 =
b1011 @
b1011 C
b1110 F
b1111 L
b0 O
b1000 R
b11010010110001111100001110010000 4
b11010010110001111100001110010000 5
b10010001001001000111011011101111 1
b10010001001001000111011011101111 7
b10101110001101000010100000100001 -
b10101110001101000010100000100001 8
b10000000111110111110101110110001 ;
b10101110001101000010100000100001 0
b10101110001101000010100000100001 6
b1011 /
1$
#28000
0$
#29000
b10011010100000100101010111111000 .
b10011010100000100101010111111000 <
b1111 ?
b1100 B
b110 E
b1001 H
b110 K
b10 N
b1011 Q
b10111011001001101001011011001111 :
b1011 T
b1101 =
b11 @
b1100 C
b110 F
b0 I
b101 L
b1 O
b1101 R
b10101110001101000010100000100001 1
b10101110001101000010100000100001 7
b11100011100111001010001000000000 -
b11100011100111001010001000000000 8
b11100011100111001010001000000000 0
b11100011100111001010001000000000 6
b1100 /
b11010001010100000110110000111101 ;
b11101101101100111100101000111101 4
b11101101101100111100101000111101 5
1$
#30000
0$
#31000
b110111011010101010101111100100 .
b110111011010101010101111100100 <
b1 ?
b1110 E
b1010 K
b1001 N
b1100 Q
b111100100110101001111011000001 :
b11 T
b1010 =
b1000 C
b1001 I
b1100 L
b1111 O
b1010 R
b10101010001110001001001000010 4
b10101010001110001001001000010 5
b11100011100111001010001000000000 1
b11100011100111001010001000000000 7
b10011010100000100101010111111000 -
b10011010100000100101010111111000 8
b10101111110010010110100000111010 ;
b10011010100000100101010111111000 0
b10011010100000100101010111111000 6
b1101 /
1$
#32000
0$
#33000
b111111011001011111111010101101 .
b111111011001011111111010101101 <
b101 ?
b1111 B
b1100 E
b1011 H
b100 K
b1011 N
b1010 Q
b1101010101101001011110011110101 :
b110 T
b1110 =
b110 @
b1010 C
b1100 F
b1000 I
b1 L
b1001 O
b1100 R
b10011010100000100101010111111000 1
b10011010100000100101010111111000 7
b110111011010101010101111100100 -
b110111011010101010101111100100 8
b110111011010101010101111100100 0
b110111011010101010101111100100 6
b1110 /
b11001001000110001100101001101110 ;
b10010001101011100001111010001010 4
b10010001101011100001111010001010 5
1$
#34000
0$
#35000
b1100 N
b100010110110011100111011110010 .
b100010110110011100111011110010 <
b1100 ?
b110 B
b110 E
b10 K
b10 Q
b10100010110000101011011001101100 :
b1010 T
b1101 L
b1011 =
b100 @
b1100 C
b1111 I
b1110 O
b110 R
b101111011110011100110110011110 4
b101111011110011100110110011110 5
b110111011010101010101111100100 1
b110111011010101010101111100100 7
b111111011001011111111010101101 -
b111111011001011111111010101101 8
b1101110110111111100110001001011 ;
b111111011001011111111010101101 0
b111111011001011111111010101101 6
b1111 /
1$
#36000
0$
#37000
b1010001001010011110000011010110 .
b1010001001010011110000011010110 <
b11 ?
b1000 B
b1001 E
b1100 H
b1101 K
b110 N
b1111 Q
b11001111011011011100100110000011 :
b1100 T
b1111 =
b1010 @
b1110 C
b1011 F
b110 I
b1001 L
b101 O
b1111 R
b111111011001011111111010101101 1
b111111011001011111111010101101 7
b100010110110011100111011110010 -
b100010110110011100111011110010 8
b100010110110011100111011110010 0
b100010110110011100111011110010 6
b10000 /
b11110101100101101011111010101111 ;
b11010010101111001110111110111101 4
b11010010101111001110111110111101 5
1$
#38000
0$
#39000
b11001011111100000101100001111101 .
b11001011111100000101100001111101 <
b10 ?
b11 B
b101 E
b10 H
b1111 N
b1 Q
b11010001111111010010010100110010 :
b1101 T
b11 =
b1001 @
b0 C
b1101 F
b1110 L
b11 O
b10 R
b100010110110011100111011110010 !
b100010110110011100111011110010 "
b100010110110011100111011110010 3
0#
b100010110110011100111011110010 1
b100010110110011100111011110010 7
b1010001001010011110000011010110 -
b1010001001010011110000011010110 8
b100011111001101101000010010011 ;
b1010001001010011110000011010110 0
b1010001001010011110000011010110 6
b10001 /
1$
#40000
0$
#41000
b11101110010010101010100100111111 .
b11101110010010101010100100111111 <
b100 ?
b100 B
b111 E
b1001 H
b0 K
b1000 N
b1101 Q
b10101101100000001001011101000100 :
b1010 T
b0 =
b10 @
b1011 C
b110 F
b1100 I
b1010 L
b0 O
b110 R
1#
b0 /
b11101010111100001000110001010011 1
b11101010111100001000110001010011 7
b10001101111011110111101101100011 -
b10001101111011110111101101100011 8
b1100000101011000110101100100000 ;
b10001101111011110111101101100011 0
b10001101111011110111101101100011 6
1$
1'
b1010111100110110101101011001000110111011110110010110110010000101 %
b1010111100110110101101011001000110111011110110010110110010000101 *
#42000
0$
#43000
b10101011110111001110101110011 .
b10101011110111001110101110011 <
b10 ?
b110 B
b1 E
b1111 H
b1111 K
b1 N
b100 Q
b100100000111111111000101100010 :
b10 T
b11 =
b100 @
b10 C
b111 F
b101 I
b110 L
b10 O
b1001 R
b10010010011001010111001001000011 ;
b100011101011111011011100000 4
b100011101011111011011100000 5
b1 /
1$
0'
#44000
0$
#45000
b100111100100001000011000011001 .
b100111100100001000011000011001 <
b100 H
b1111 ?
b1111 B
b1111 E
b101 K
b101 N
b1111 Q
b10101111010101010100111111111111 :
b1010 T
b1001 F
b1101 =
b110 @
b1001 C
b100 I
b1011 L
b101 O
b110 R
b10001101111011110111101101100011 1
b10001101111011110111101101100011 7
b10101011110111001110101110011 -
b10101011110111001110101110011 8
b10101011110111001110101110011 0
b10101011110111001110101110011 6
b10 /
b1100101101101001001100101101101 ;
b1010000001110001111101111111010 4
b1010000001110001111101111111010 5
1$
#46000
0$
#47000
b110101000001111100001100000010 .
b110101000001111100001100000010 <
b1011 ?
b1000 B
b0 H
b100 K
b10 N
b1110 Q
b11001110001001000000111110001011 :
b1100 T
b1001 =
b1010 @
b100 F
b1000 I
b101 L
b1010 O
b1111 R
b11010010110001111100001110010000 4
b11010010110001111100001110010000 5
b10101011110111001110101110011 1
b10101011110111001110101110011 7
b100111100100001000011000011001 -
b100111100100001000011000011001 8
b11111010010110000100100110101001 ;
b100111100100001000011000011001 0
b100111100100001000011000011001 6
b11 /
1$
#48000
0$
#49000
b11010000100101101001100010111011 .
b11010000100101101001100010111011 <
b11 ?
b1100 B
b0 E
b1110 H
b1110 K
b101 N
b100 Q
b11010100010111101110000011000011 :
b1101 T
b1111 =
b11 @
b1101 C
b1000 F
b1011 I
b1011 L
b10 O
b10 R
b100111100100001000011000011001 1
b100111100100001000011000011001 7
b110101000001111100001100000010 -
b110101000001111100001100000010 8
b110101000001111100001100000010 0
b110101000001111100001100000010 6
b100 /
b100010101110111000110100111111 ;
b11101101101100111100101000111101 4
b11101101101100111100101000111101 5
1$
#50000
0$
#51000
b101110011000110011111101111100 .
b101110011000110011111101111100 <
b1111 ?
b1001 B
b1100 E
b110 H
b11 K
b1100 N
b1111 Q
b10001111110000110110110010011111 :
b1000 T
b1101 =
b1111 @
b1010 C
b1010 F
b1101 I
b1101 L
b101 O
b1110 R
b10101010001110001001001000010 4
b10101010001110001001001000010 5
b110101000001111100001100000010 1
b110101000001111100001100000010 7
b11010000100101101001100010111011 -
b11010000100101101001100010111011 8
b11100101110111011010101011111101 ;
b11010000100101101001100010111011 0
b11010000100101101001100010111011 6
b101 /
1$
#52000
0$
#53000
b110100110110011001101111010110 .
b110100110110011001101111010110 <
b0 ?
b1110 B
b1001 E
b1000 H
b1100 K
b1011 N
b1101 Q
b1101101101111001000100111100000 :
b110 T
b110 =
b0 @
b1110 C
b101 F
b1 I
b1 L
b0 O
b1100 R
b11010000100101101001100010111011 1
b11010000100101101001100010111011 7
b101110011000110011111101111100 -
b101110011000110011111101111100 8
b101110011000110011111101111100 0
b101110011000110011111101111100 6
b110 /
b11000000000100010101111000000110 ;
b10010001101011100001111010001010 4
b10010001101011100001111010001010 5
1$
#54000
0$
#55000
b1010 T
b100010100111100101001001100101 .
b100010100111100101001001100101 <
b1101 ?
b1010 B
b1111 E
b1001 H
b1 K
b10 N
b10100011001000011001111110101101 :
b11 Q
b110 R
b100 =
b111 @
b1001 C
b110 F
b11 I
b101 L
b100 O
b101111011110011100110110011110 4
b101111011110011100110110011110 5
b101110011000110011111101111100 1
b101110011000110011111101111100 7
b110100110110011001101111010110 -
b110100110110011001101111010110 8
b1100100010100110110100101110100 ;
b110100110110011001101111010110 0
b110100110110011001101111010110 6
b111 /
1$
#56000
0$
#57000
b1000100110100111101010110101111 .
b1000100110100111101010110101111 <
b1001 ?
b100 B
b1 E
b0 H
b1110 K
b1111 Q
b11001111001011100000000101001001 :
b1100 T
b10 =
b10 @
b10 C
b100 F
b1011 I
b101 O
b1111 R
b110100110110011001101111010110 1
b110100110110011001101111010110 7
b100010100111100101001001100101 -
b100010100111100101001001100101 8
b100010100111100101001001100101 0
b100010100111100101001001100101 6
b1000 /
b11110101010110110100001000100010 ;
b11010010101111001110111110111101 4
b11010010101111001110111110111101 5
1$
#58000
0$
#59000
b11110111001011110100100010110110 .
b11110111001011110100100010110110 <
b11 ?
b10 B
b110 E
b1011 H
b1010 K
b111 N
b1010 Q
b1011010011110101011011000100011 :
b101 T
b1111 =
b1000 @
b1100 C
b1100 F
b1001 I
b100 L
b1001 O
b100 R
b100011101011111011011100000 4
b100011101011111011011100000 5
b100010100111100101001001100101 1
b100010100111100101001001100101 7
b1000100110100111101010110101111 -
b1000100110100111101010110101111 8
b1001001010010011100110010001111 ;
b1000100110100111101010110101111 0
b1000100110100111101010110101111 6
b1001 /
1$
#60000
0$
#61000
b11100100100000110111011101100111 .
b11100100100000110111011101100111 <
b100 ?
b1 B
b1010 E
b0 H
b100 K
b1 N
b1011001000101000000101000010100 :
b1001 Q
b0 =
b1011 @
b100 C
b100 F
b1000 I
b110 L
b111 O
b1000100110100111101010110101111 1
b1000100110100111101010110101111 7
b11110111001011110100100010110110 -
b11110111001011110100100010110110 8
b11110111001011110100100010110110 0
b11110111001011110100100010110110 6
b1010 /
b1000111011010000100010010110000 ;
b1010000001110001111101111111010 4
b1010000001110001111101111111010 5
1$
#62000
0$
#63000
b111110010111011111111111101 .
b111110010111011111111111101 <
b1110 ?
b1001 B
b1100 E
b1 H
b1110 K
b111 N
b11101001011111100001110010011110 :
b1110 T
b111 =
b1111 @
b1010 C
b11 F
b1011 I
b100 L
b1011 R
b11010010110001111100001110010000 4
b11010010110001111100001110010000 5
b11110111001011110100100010110110 1
b11110111001011110100100010110110 7
b11100100100000110111011101100111 -
b11100100100000110111011101100111 8
b10110111010010110011101011110111 ;
b11100100100000110111011101100111 0
b11100100100000110111011101100111 6
b1011 /
1$
#64000
0$
#65000
b1110011111001010111100100011001 .
b1110011111001010111100100011001 <
b1 ?
b1100 B
b1110 H
b10 K
b1101 N
b1111 Q
b11001111110100101110110011000001 :
b1100 T
b1010 =
b11 @
b1000 F
b1111 I
b111 L
b101 O
b1111 R
b11100100100000110111011101100111 1
b11100100100000110111011101100111 7
b111110010111011111111111101 -
b111110010111011111111111101 8
b111110010111011111111111101 0
b111110010111011111111111101 6
b1100 /
b11110101011111111000101000111010 ;
b11101101101100111100101000111101 4
b11101101101100111100101000111101 5
1$
#66000
0$
#67000
b111101010101101100101000 .
b111101010101101100101000 <
b1100 ?
b1101 B
b111 E
b0 K
b1010 N
b1010 Q
b10011010101000001110011111011100 :
b1001 T
b1011 =
b101 @
b1011 C
b1100 I
b10 L
b1001 O
b1000 R
b10101010001110001001001000010 4
b10101010001110001001001000010 5
b111110010111011111111111101 1
b111110010111011111111111101 7
b1110011111001010111100100011001 -
b1110011111001010111100100011001 8
b10001001001011001000101101011011 ;
b1110011111001010111100100011001 0
b1110011111001010111100100011001 6
b1101 /
1$
#68000
0$
#69000
b1111100000111011011000000111101 .
b1111100000111011011000000111101 <
b1001 ?
b1 B
b1111 E
b1111 H
b1 K
b1000 N
b100 Q
b100100100000011111111100011001 :
b10 T
b10 =
b1011 @
b1001 C
b111 F
b11 I
b1010 L
b10 O
b1001 R
b1110011111001010111100100011001 1
b1110011111001010111100100011001 7
b111101010101101100101000 -
b111101010101101100101000 8
b111101010101101100101000 0
b111101010101101100101000 6
b1110 /
b10010010101000110111100110110010 ;
b10010001101011100001111010001010 4
b10010001101011100001111010001010 5
1$
#70000
0$
#71000
b1000111011101101011101010010011 .
b1000111011101101011101010010011 <
b1100 ?
b111 B
b0 E
b1000 K
b110 N
b111 Q
b110111011010001111000001111100 :
b11 T
b1011 =
b1101 @
b1101 C
b111 I
b1001 L
b1011 O
b1010 R
b101111011110011100110110011110 4
b101111011110011100110110011110 5
b111101010101101100101000 1
b111101010101101100101000 7
b1111100000111011011000000111101 -
b1111100000111011011000000111101 8
b10101011100101110111110111011011 ;
b1111100000111011011000000111101 0
b1111100000111011011000000111101 6
b1111 /
1$
#72000
0$
#73000
b1110111011110110001011111001101 .
b1110111011110110001011111001101 <
b100 ?
b1101 B
b1100 E
b110 H
b1 K
b0 N
b1110 Q
b11111110000000010110110011010100 :
b1111 T
b0 =
b101 @
b1010 C
b1010 F
b11 I
b11 L
b1010 O
b1 R
b1111100000111011011000000111101 1
b1111100000111011011000000111101 7
b1000111011101101011101010010011 -
b1000111011101101011101010010011 8
b1000111011101101011101010010011 0
b1000111011101101011101010010011 6
b10000 /
b11010001100111010101001010000 ;
b11010010101111001110111110111101 4
b11010010101111001110111110111101 5
1$
#74000
0$
#75000
b1100100111001111011000001100011 .
b1100100111001111011000001100011 <
b1 ?
b10 B
b10 E
b111 H
b100 K
b1011110000001000111001000100001 :
b101 T
b1010 =
b1000 @
b111 C
b0 F
b1000 I
b100 R
b1000111011101101011101010010011 !
b1000111011101101011101010010011 "
b1000111011101101011101010010011 3
0#
b1000111011101101011101010010011 1
b1000111011101101011101010010011 7
b1110111011110110001011111001101 -
b1110111011110110001011111001101 8
b1001010001110000000011110001010 ;
b1110111011110110001011111001101 0
b1110111011110110001011111001101 6
b10001 /
1$
#76000
0$
#77000
b1010110000110101001101011110111 .
b1010110000110101001101011110111 <
b1100 ?
b1001 B
b1011 E
b1010 H
b0 K
b1100 N
b1010011110000001010101110011100 :
b11 Q
b1011 =
b1111 @
b1111 C
b10 F
b1100 I
b1101 L
b100 O
1#
b0 /
b1010011010001100111100001101001 1
b1010011010001100111100001101001 7
b1110010000111110100000000111110 -
b1110010000111110100000000111110 8
b1000100110111000010111111111011 ;
b1110010000111110100000000111110 0
b1110010000111110100000000111110 6
1$
1'
b11010101101001111110101010110100100100001111010110111110100100 %
b11010101101001111110101010110100100100001111010110111110100100 *
#78000
0$
#79000
b101011110100111101001001000010 .
b101011110100111101001001000010 <
b101 ?
b1011 B
b10 E
b1 H
b1111 K
b110 N
b101 Q
b1000101011011110001001010110101 :
b100 T
b1110 =
b1 @
b111 C
b11 F
b101 I
b1001 L
b110 O
b111 R
b1110110100101010011011100011110 ;
b100011101011111011011100000 4
b100011101011111011011100000 5
b1 /
1$
0'
#80000
0$
#81000
b1110111110100010111101000001100 .
b1110111110100010111101000001100 <
b1011 H
b111 ?
b1100 B
b1001 E
b0 K
b100 N
b1000110010000001011100111000111 :
b110 Q
b1100 F
b1100 =
b11 @
b1110 C
b1100 I
b0 L
b1100 O
b1110010000111110100000000111110 1
b1110010000111110100000000111110 7
b101011110100111101001001000010 -
b101011110100111101001001000010 8
b101011110100111101001001000010 0
b101011110100111101001001000010 6
b10 /
b1111100000011001100111000111100 ;
b1010000001110001111101111111010 4
b1010000001110001111101111111010 5
1$
#82000
0$
#83000
b110 N
b1111011010100100110100010110001 .
b1111011010100100110100010110001 <
b11 B
b0 E
b1 H
b1010 K
b1110 Q
b1011110011010100001000000110111 :
b101 T
b1001 L
b1001 @
b1101 C
b11 F
b1001 I
b1010 O
b100 R
b11010010110001111100001110010000 4
b11010010110001111100001110010000 5
b101011110100111101001001000010 1
b101011110100111101001001000010 7
b1110111110100010111101000001100 -
b1110111110100010111101000001100 8
b1001010100110010011110110011100 ;
b1110111110100010111101000001100 0
b1110111110100010111101000001100 6
b11 /
1$
#84000
0$
#85000
b11111010110111101011101011110 .
b11111010110111101011101011110 <
b101 ?
b101 B
b1 E
b1101 K
b100 N
b1010 Q
b10101010010011010001000101010101 :
b1010 T
b1110 =
b1110 @
b10 C
b110 I
b0 L
b1001 O
b110 R
b1110111110100010111101000001100 1
b1110111110100010111101000001100 7
b1111011010100100110100010110001 -
b1111011010100100110100010110001 8
b1111011010100100110100010110001 0
b1111011010100100110100010110001 6
b100 /
b1101001000001100011001011101110 ;
b11101101101100111100101000111101 4
b11101101101100111100101000111101 5
1$
#86000
0$
#87000
b1000 N
b1000001101011100100100010101101 .
b1000001101011100100100010101101 <
b100 ?
b1000 B
b1111 E
b101 H
b111 K
b11 Q
b11100001110101111110000100 :
b0 T
b1010 L
b0 =
b1010 @
b1001 C
b1110 F
b10 I
b100 O
b11 R
b10101010001110001001001000010 4
b10101010001110001001001000010 5
b1111011010100100110100010110001 1
b1111011010100100110100010110001 7
b11111010110111101011101011110 -
b11111010110111101011101011110 8
b110100101000101110100110100000 ;
b11111010110111101011101011110 0
b11111010110111101011101011110 6
b101 /
1$
#88000
0$
#89000
b11011110011011010001011010111 .
b11011110011011010001011010111 <
b1110 ?
b1100 B
b10 E
b1001 H
b0 K
b10 N
b1 Q
b10110001001000001001001011001110 :
b1011 T
b111 =
b11 @
b111 C
b110 F
b1100 I
b101 L
b11 O
b1101 R
b11111010110111101011101011110 1
b11111010110111101011101011110 7
b1000001101011100100100010101101 -
b1000001101011100100100010101101 8
b1000001101011100100100010101101 0
b1000001101011100100100010101101 6
b110 /
b11010011010111000110011100110111 ;
b10010001101011100001111010001010 4
b10010001101011100001111010001010 5
1$
#90000
0$
#91000
b10000110000000110000101000010110 .
b10000110000000110000101000010110 <
b1000 ?
b1010 B
b101 E
b1111 H
b1000 K
b111 N
b111 Q
b1010111011110001111010110101000 :
b101 T
b101 =
b111 @
b0 C
b111 F
b111 I
b100 L
b1011 O
b100 R
b101111011110011100110110011110 4
b101111011110011100110110011110 5
b1000001101011100100100010101101 1
b1000001101011100100100010101101 7
b11011110011011010001011010111 -
b11011110011011010001011010111 8
b1001011010001110111000001110101 ;
b11011110011011010001011010111 0
b11011110011011010001011010111 6
b111 /
1$
#92000
0$
#93000
b10001010001101100011000101010101 .
b10001010001101100011000101010101 <
b10 ?
b111 B
b1111 E
b11 H
b10 K
b101 N
b0 Q
b1110000010100100011111101110010 :
b111 T
b11 =
b1101 @
b1001 C
b1111 F
b1111 I
b1011 L
b1000 O
b101 R
b11011110011011010001011010111 1
b11011110011011010001011010111 7
b10000110000000110000101000010110 -
b10000110000000110000101000010110 8
b10000110000000110000101000010110 0
b10000110000000110000101000010110 6
b1000 /
b1011000101111111111100111010011 ;
b11010010101111001110111110111101 4
b11010010101111001110111110111101 5
1$
#94000
0$
